{
  "17b69b46ce61f493485d6c6b3fcd769b39c99da796d9d13cee435e762134638b": true,
  "bfe3e117f707401d5801342a37f5c446994726a83bf4619be9fd5aa3d7c67faa": true,
  "58786317b28a84f6054a7290a6a6e7395a7e13ae617f466da8becff29db723e2": true,
  "db9a999b6f854166f455aef31489adb990897459dd33f073a9bee7207767a807": true,
  "6b5e8b81dadfb5edf38dd787ec5912a258665d8e5dc17f0a0ec4379f652867bc": true,
  "2238eedd9b58fa2888d87d947d719af1056cdf0c4835ec95d09bf45961b5606c": true,
  "19e302279201189fefec8d3ef69def43f55536a7b05eb8f28fdc53562676a2db": true,
  "a117e4e2bab339533b1f1a3c851bc7b2d8fc3256cd10a512d7fed5c797a9066d": true,
  "0601704434007b7af33c70ff6b0dc9141781562a5d67d997d78ac5381e86fc4a": true,
  "da1e0f4729ab687054785a09d019e202e6a8f96621b7d8fccf37e95d86536aef": true,
  "9d66eaa45e0303f69752bbc7d03b1ac4accae96b944428a3b0f23b4dabfbcff3": true,
  "52d19608c3165dc18a52cabe3fd8674a5a1c1bc5c7ab9212d870649c08cb6ac8": true,
  "f1c2429116055198d0ce9bcb1ada35e75cad0be41c85c35b0130d88ab7d03c3d": true,
  "d7591c8c4100b010f5b85dd7a9ba259e0695c92bf5672042cf54fe4c9efc0ce3": true,
  "b5016dcd1af48f75379b03e331567a968ca347de7e459470d938bf1f9ff5beb4": true,
  "9bd0bd9529e25a7e434acb76e179b07b5bdf682a63623311a78cebc85ef3111e": true,
  "d68a1969bf27dd609e5f97467ddd40a37b1db02319b404f8695ee478021cf743": true,
  "08e38ea6a470357720549ce857fc5411c7a29bf95024262d930ea5bb9768370c": true,
  "d5e825fc78ba267e429e79b918714162e1867b153f080104cbb800fb155b3805": true,
  "947cb2a703948277885aab4d014e98d7780d431d18c4c0b6e5fd40fae2c59b01": true,
  "fecda6d515e150f9fc48392ff3dac77ab9a01e50ddb075b57119fa0b94361b90": true,
  "1194c64dc3e913f844ca6c88147e598ccc21920848d9523441e7270112922d8c": true,
  "94be9f47c1650764ae27a82acfd230ffd636ec64e1a63e442a8130688734d5a0": true,
  "33a469611929909c529dc29e2c089772a73c4f30a127b67b4790e0f3743bcffd": true,
  "571e918255fd8c5d2b4ef9fa10f6ded4338ca99b93c6202b60213af759c55c9c": true,
  "e88f5cf725fa9f9e79071d11abef9e007d0b313aa7ff835c85172ac4013fa70e": true,
  "36097b984faacdc897dd8b52ff845ab0dd1b5ef41d940c0729b7b1b492de78a6": true,
  "8121cdf604569145ab825a0c6cae4736b1504aac6fd3030ab253b9a06f3ad322": true,
  "a1e36120f5bc40dc963f16a22952acabdc04b4c1cf3e655d43febd94bde065c6": true,
  "e83623d52ecffcb9475a9fbca94db5dac6ad43d55990c3e3d66b539986293880": true,
  "cc992edc8ee5a63f61accf2c93bd394dd55d949cf2d883263ae7c87c61d26935": true,
  "0864276fc43a9de6da55cae750a0f583667f02cf0edd7541c83aa3069c24e2e5": true,
  "6df6a36a942097f748998a8fbb7a59611fd553dcc18952131a83b64c4ad98391": true,
  "e20bcaa79f2282932803cd9c4fd0c563a75bdc4b52b4ed32e8315d082549bccf": true,
  "88e99fa5c5b670d47102f4c3df93efbd255fb3652eee63b837744b3ccca0eb80": true,
  "f66378987809999a9a7f3070ff5a15e9132e27d077ea8f38f48f8d1389e1efe4": true,
  "e3bc8964553bc98e1714f46a49a142900203c281c691d3f0c2281254bfe92e0c": true,
  "2f863902aa607311880243958161e73b71eebe47e3a6b261b3009a77a0950dc3": true,
  "56e443ee66684cea38be92efaa7b95d20bd0a57be10acc1402455644519a9129": true,
  "2f4c74b1367ed59114e9c30721fefe3359e6947e0cbf373796bfa40edc7abcfc": true,
  "a3c60067b6eed186aa75373218785410b8103919134cab87f4d6f57b9867ed8f": true,
  "907716c747ad47bbc01d1b8711f40b81f1d59009b1b4e170b8a93b9507a4f063": true,
  "bec7edbee9a773092c0e6d7e7e11a8b6338270f79b374bf9abbe2bc33ab8d3f8": true,
  "3824603b954a6c14ed7370ea27110afc92145638388bf23ce92e868c515ce475": true,
  "4d09c32b80dc294cc7705d4298a44e8c86937f2e64613130da8530f2778578b4": true,
  "5fe9542d469344bbfe9b17eb4898f42973ec555f36a992ca2af4c58f370f9048": true,
  "c7c769a5cbc245327025c831e52ed6ee043a838c88e133027412dd892a3799fb": true,
  "ea308f3405bb03351f83223c4168ecf31fd78afbb14f4a79a7b529282d914547": true,
  "c4bdb2c4e192585ee59ca96aec68868b79e7de4a51132c4024fbca4bf836aec8": true,
  "5d6f9716a2bec632f836529f823227c80fcae7b84ca899cd5b78c9f78daaaae5": true,
  "b2eb6929e9693fa42322c216c26322d7522750b9cc0ef8350b44275967ef458a": true,
  "e072f87f75170d8b92c240c4df0ebbe84ccb8a0a2a610d00d1a03b31743d44b9": true,
  "5a7c225653669c6367968c9e55451a0c41a6585870dc72976b64f076e1badcb6": true,
  "400183660871524b9281b6482840ff0e30baacf3d7353811200f888f29cc0e22": true,
  "0ab107d70d316784d12324bd3be2455e8aaa23beef377f5dfcf1f0bb1b85fdad": true
}